---
http_interactions:
- request:
    method: get
    uri: https://token-stage.adcrws.com/v1/filters?per_page=1
    body:
      encoding: US-ASCII
      string: ''
    headers:
      Access-Token:
      - ACCESS_TOKEN
      Content-Type:
      - application/json
      Accept:
      - application/json
  response:
    status:
      code: 200
      message: OK
    headers:
      Server:
      - nginx/1.8.0
      Date:
      - Mon, 22 Feb 2016 20:16:50 GMT
      Content-Type:
      - application/json
      Transfer-Encoding:
      - chunked
      Connection:
      - keep-alive
      X-Frame-Options:
      - SAMEORIGIN
      X-Xss-Protection:
      - 1; mode=block
      X-Content-Type-Options:
      - nosniff
      Access-Control-Allow-Methods:
      - POST, GET, PUT, DELETE, OPTIONS
      Access-Control-Request-Method:
      - GET
      Access-Control-Allow-Headers:
      - Origin,  X-Requested-With, Content-Type, Accept, Authorization, Access-Token
      Access-Control-Max-Age:
      - '1728000'
      Etag:
      - '"e094278294424b141d9ac19d760a1f60"'
      Cache-Control:
      - max-age=0, private, must-revalidate
      X-Request-Id:
      - d1211dfe-bc18-4ec4-a86c-d69acb6aab45
      X-Runtime:
      - '0.038928'
    body:
      encoding: UTF-8
      string: |-
        {
          "info": {
            "total_results": 273,
            "results_per_page": 1,
            "current_page": 1,
            "total_pages": 273
          },
          "filters": [
            {
              "filter_id": 295,
              "filter_name": "AARP - Novu Life - Entertainment, Golf, Home/Garden, Services - No Dining"
            }
          ],
          "links": {
            "next_page": "https://report-stage.adcrws.com/v1/filters?page=2"
          }
        }
    http_version: 
  recorded_at: Mon, 22 Feb 2016 20:16:52 GMT
recorded_with: VCR 3.0.1
